^D:\UNI STUFF\COURSE STUFFS\PROGRAMMING\COURSEWORK_OPENGL_CONSOLE\X64\DEBUG\CAT.OBJ|D:\UNI STUFF\COURSE STUFFS\PROGRAMMING\COURSEWORK_OPENGL_CONSOLE\X64\DEBUG\CHARACTER.OBJ|D:\UNI STUFF\COURSE STUFFS\PROGRAMMING\COURSEWORK_OPENGL_CONSOLE\X64\DEBUG\ELF.OBJ|D:\UNI STUFF\COURSE STUFFS\PROGRAMMING\COURSEWORK_OPENGL_CONSOLE\X64\DEBUG\ENEMY.OBJ|D:\UNI STUFF\COURSE STUFFS\PROGRAMMING\COURSEWORK_OPENGL_CONSOLE\X64\DEBUG\GAME.OBJ|D:\UNI STUFF\COURSE STUFFS\PROGRAMMING\COURSEWORK_OPENGL_CONSOLE\X64\DEBUG\HUMAN.OBJ|D:\UNI STUFF\COURSE STUFFS\PROGRAMMING\COURSEWORK_OPENGL_CONSOLE\X64\DEBUG\ORC.OBJ|D:\UNI STUFF\COURSE STUFFS\PROGRAMMING\COURSEWORK_OPENGL_CONSOLE\X64\DEBUG\STDAFX.OBJ|D:\UNI STUFF\COURSE STUFFS\PROGRAMMING\COURSEWORK_OPENGL_CONSOLE\X64\DEBUG\WEEK20.OBJ
C:\WINDOWS\GLOBALIZATION\SORTING\SORTDEFAULT.NLS
C:\PROGRAM FILES (X86)\WINDOWS KITS\8.1\LIB\WINV6.3\UM\X64\KERNEL32.LIB
C:\PROGRAM FILES (X86)\WINDOWS KITS\8.1\LIB\WINV6.3\UM\X64\USER32.LIB
C:\PROGRAM FILES (X86)\WINDOWS KITS\8.1\LIB\WINV6.3\UM\X64\GDI32.LIB
C:\PROGRAM FILES (X86)\WINDOWS KITS\8.1\LIB\WINV6.3\UM\X64\WINSPOOL.LIB
C:\PROGRAM FILES (X86)\WINDOWS KITS\8.1\LIB\WINV6.3\UM\X64\COMDLG32.LIB
C:\PROGRAM FILES (X86)\WINDOWS KITS\8.1\LIB\WINV6.3\UM\X64\ADVAPI32.LIB
C:\PROGRAM FILES (X86)\WINDOWS KITS\8.1\LIB\WINV6.3\UM\X64\SHELL32.LIB
C:\PROGRAM FILES (X86)\WINDOWS KITS\8.1\LIB\WINV6.3\UM\X64\OLE32.LIB
C:\PROGRAM FILES (X86)\WINDOWS KITS\8.1\LIB\WINV6.3\UM\X64\OLEAUT32.LIB
C:\PROGRAM FILES (X86)\WINDOWS KITS\8.1\LIB\WINV6.3\UM\X64\UUID.LIB
C:\PROGRAM FILES (X86)\WINDOWS KITS\8.1\LIB\WINV6.3\UM\X64\ODBC32.LIB
C:\PROGRAM FILES (X86)\WINDOWS KITS\8.1\LIB\WINV6.3\UM\X64\ODBCCP32.LIB
D:\UNI STUFF\COURSE STUFFS\PROGRAMMING\COURSEWORK_OPENGL_CONSOLE\X64\DEBUG\CAT.OBJ
D:\UNI STUFF\COURSE STUFFS\PROGRAMMING\COURSEWORK_OPENGL_CONSOLE\X64\DEBUG\CHARACTER.OBJ
D:\UNI STUFF\COURSE STUFFS\PROGRAMMING\COURSEWORK_OPENGL_CONSOLE\X64\DEBUG\ELF.OBJ
D:\UNI STUFF\COURSE STUFFS\PROGRAMMING\COURSEWORK_OPENGL_CONSOLE\X64\DEBUG\ENEMY.OBJ
D:\UNI STUFF\COURSE STUFFS\PROGRAMMING\COURSEWORK_OPENGL_CONSOLE\X64\DEBUG\HUMAN.OBJ
D:\UNI STUFF\COURSE STUFFS\PROGRAMMING\COURSEWORK_OPENGL_CONSOLE\X64\DEBUG\GAME.OBJ
D:\UNI STUFF\COURSE STUFFS\PROGRAMMING\COURSEWORK_OPENGL_CONSOLE\X64\DEBUG\ORC.OBJ
D:\UNI STUFF\COURSE STUFFS\PROGRAMMING\COURSEWORK_OPENGL_CONSOLE\X64\DEBUG\STDAFX.OBJ
D:\UNI STUFF\COURSE STUFFS\PROGRAMMING\COURSEWORK_OPENGL_CONSOLE\X64\DEBUG\WEEK20.OBJ
C:\WINDOWS\SYSTEM32\TZRES.DLL
D:\UNREAL\VC\LIB\AMD64\MSVCPRTD.LIB
D:\UNREAL\VC\LIB\AMD64\MSVCRTD.LIB
D:\UNREAL\VC\LIB\AMD64\OLDNAMES.LIB
C:\PROGRAM FILES (X86)\WINDOWS KITS\8.1\LIB\WINV6.3\UM\X64\OPENGL32.LIB
C:\PROGRAM FILES (X86)\WINDOWS KITS\8.1\LIB\WINV6.3\UM\X64\GLU32.LIB
D:\UNREAL\VC\LIB\AMD64\VCRUNTIMED.LIB
C:\PROGRAM FILES (X86)\WINDOWS KITS\10\LIB\10.0.10240.0\UCRT\X64\UCRTD.LIB
^D:\UNI STUFF\COURSE STUFFS\PROGRAMMING\UP802630_PROGRAMMING_FINAL.ZIP\X64\DEBUG\CAT.OBJ|D:\UNI STUFF\COURSE STUFFS\PROGRAMMING\UP802630_PROGRAMMING_FINAL.ZIP\X64\DEBUG\CHARACTER.OBJ|D:\UNI STUFF\COURSE STUFFS\PROGRAMMING\UP802630_PROGRAMMING_FINAL.ZIP\X64\DEBUG\ELF.OBJ|D:\UNI STUFF\COURSE STUFFS\PROGRAMMING\UP802630_PROGRAMMING_FINAL.ZIP\X64\DEBUG\ENEMY.OBJ|D:\UNI STUFF\COURSE STUFFS\PROGRAMMING\UP802630_PROGRAMMING_FINAL.ZIP\X64\DEBUG\GAME.OBJ|D:\UNI STUFF\COURSE STUFFS\PROGRAMMING\UP802630_PROGRAMMING_FINAL.ZIP\X64\DEBUG\HUMAN.OBJ|D:\UNI STUFF\COURSE STUFFS\PROGRAMMING\UP802630_PROGRAMMING_FINAL.ZIP\X64\DEBUG\ORC.OBJ|D:\UNI STUFF\COURSE STUFFS\PROGRAMMING\UP802630_PROGRAMMING_FINAL.ZIP\X64\DEBUG\STDAFX.OBJ|D:\UNI STUFF\COURSE STUFFS\PROGRAMMING\UP802630_PROGRAMMING_FINAL.ZIP\X64\DEBUG\WEEK20.OBJ
C:\WINDOWS\GLOBALIZATION\SORTING\SORTDEFAULT.NLS
C:\PROGRAM FILES (X86)\WINDOWS KITS\8.1\LIB\WINV6.3\UM\X64\KERNEL32.LIB
C:\PROGRAM FILES (X86)\WINDOWS KITS\8.1\LIB\WINV6.3\UM\X64\USER32.LIB
C:\PROGRAM FILES (X86)\WINDOWS KITS\8.1\LIB\WINV6.3\UM\X64\GDI32.LIB
C:\PROGRAM FILES (X86)\WINDOWS KITS\8.1\LIB\WINV6.3\UM\X64\WINSPOOL.LIB
C:\PROGRAM FILES (X86)\WINDOWS KITS\8.1\LIB\WINV6.3\UM\X64\COMDLG32.LIB
C:\PROGRAM FILES (X86)\WINDOWS KITS\8.1\LIB\WINV6.3\UM\X64\ADVAPI32.LIB
C:\PROGRAM FILES (X86)\WINDOWS KITS\8.1\LIB\WINV6.3\UM\X64\SHELL32.LIB
C:\PROGRAM FILES (X86)\WINDOWS KITS\8.1\LIB\WINV6.3\UM\X64\OLE32.LIB
C:\PROGRAM FILES (X86)\WINDOWS KITS\8.1\LIB\WINV6.3\UM\X64\OLEAUT32.LIB
C:\PROGRAM FILES (X86)\WINDOWS KITS\8.1\LIB\WINV6.3\UM\X64\UUID.LIB
C:\PROGRAM FILES (X86)\WINDOWS KITS\8.1\LIB\WINV6.3\UM\X64\ODBC32.LIB
C:\PROGRAM FILES (X86)\WINDOWS KITS\8.1\LIB\WINV6.3\UM\X64\ODBCCP32.LIB
D:\UNI STUFF\COURSE STUFFS\PROGRAMMING\UP802630_PROGRAMMING_FINAL.ZIP\X64\DEBUG\CAT.OBJ
D:\UNI STUFF\COURSE STUFFS\PROGRAMMING\UP802630_PROGRAMMING_FINAL.ZIP\X64\DEBUG\CHARACTER.OBJ
D:\UNI STUFF\COURSE STUFFS\PROGRAMMING\UP802630_PROGRAMMING_FINAL.ZIP\X64\DEBUG\ELF.OBJ
D:\UNI STUFF\COURSE STUFFS\PROGRAMMING\UP802630_PROGRAMMING_FINAL.ZIP\X64\DEBUG\ENEMY.OBJ
D:\UNI STUFF\COURSE STUFFS\PROGRAMMING\UP802630_PROGRAMMING_FINAL.ZIP\X64\DEBUG\HUMAN.OBJ
D:\UNI STUFF\COURSE STUFFS\PROGRAMMING\UP802630_PROGRAMMING_FINAL.ZIP\X64\DEBUG\GAME.OBJ
D:\UNI STUFF\COURSE STUFFS\PROGRAMMING\UP802630_PROGRAMMING_FINAL.ZIP\X64\DEBUG\ORC.OBJ
D:\UNI STUFF\COURSE STUFFS\PROGRAMMING\UP802630_PROGRAMMING_FINAL.ZIP\X64\DEBUG\STDAFX.OBJ
D:\UNI STUFF\COURSE STUFFS\PROGRAMMING\UP802630_PROGRAMMING_FINAL.ZIP\X64\DEBUG\WEEK20.OBJ
C:\WINDOWS\SYSTEM32\TZRES.DLL
D:\UNREAL\VC\LIB\AMD64\MSVCPRTD.LIB
D:\UNREAL\VC\LIB\AMD64\MSVCRTD.LIB
D:\UNREAL\VC\LIB\AMD64\OLDNAMES.LIB
C:\PROGRAM FILES (X86)\WINDOWS KITS\8.1\LIB\WINV6.3\UM\X64\OPENGL32.LIB
C:\PROGRAM FILES (X86)\WINDOWS KITS\8.1\LIB\WINV6.3\UM\X64\GLU32.LIB
D:\UNREAL\VC\LIB\AMD64\VCRUNTIMED.LIB
C:\PROGRAM FILES (X86)\WINDOWS KITS\10\LIB\10.0.10240.0\UCRT\X64\UCRTD.LIB
C:\PROGRAM FILES (X86)\WINDOWS KITS\8.1\BIN\X86\RC.EXE
D:\UNREAL\VC\BIN\CVTRES.EXE
